{
    "applications": {
        "_default": {
            "link": "sincrolab"
        }, 
        "sincrolab": {
            "applicationId": "MKm1dLjt1uDWvP7tuUl5fe9tn2ThvAwABsWtRPFS", 
            "masterKey": "Ql6fNA6Z6YkrGcbDlj5PqIt9NbZKAu5kHieh1IFE"
        }
    }, 
    "global": {
        "parseVersion": "1.2.17"
    }
}